{
  "type": "service_account",
  "project_id": "bcacare-173316",
  "private_key_id": "ac6f3dc629e32ed73c6508aa6a9f44113e536557",
  "private_key": "-----BEGIN PRIVATE KEY-----\nMIIEvwIBADANBgkqhkiG9w0BAQEFAASCBKkwggSlAgEAAoIBAQDCW8KX/nddhU36\nsznvibKUD87counNoEsL1dKRixxhHgV/i8u+lKiMEu3vRte7lnvXSZXRnZ4vlu/I\nn7rcdDHXSeEm6c8Dq4+vmPMQqZbZfTAxJrNuHORvRiWc0SMuNBx7VU7vEaW/+4yP\n5LyuCTT5FPljJ1DPmEaWNgSQtkLHrDzZ2XmPgsNodw68m+NBKYfG0RboMa42jqlW\nHrowm6IU4E/ElWl6sAZOWApxT7n+ZIix0PppLncFQkUC0s+c4r2VSDBQMHCXYX01\n4e7GjrfNe6hfWR3TqQvl2gjq/G5flklnlFz7mU7ZWwXaxEMcSHIpxevcr0ww7KzB\nhePeu8HZAgMBAAECggEAKsxo/+5dm57wqn2QCvLv+5G1lDldsdWT4QHPUhRnhe1F\n+a2vioKS0PGUKoYXmGvNTn2aO6PxQvqCR9QAom4F0aonpdmDqAO96sWL9MXbfX4H\nQDOM/HjpRqWUP8F/9TstcG07KgLhVHLQo5kTgWFupFDdj9uG/IfEN2yiubkg4HXn\nUv6v4d6NMuIj30kikRPO1Gz4U+0YKPfQwG9KF7FhSyKAjUussvEqMqATcK19pZA/\nUak/L5a/RewFwMVTxQShsPrec85B//x+qGZtK5Lji7mUMVqsyQJnx394RiJScOvl\n+ataReBT+lPEp5KXp0hvlN8hIX123aMUhnCWsBf4+QKBgQDlilOrio96jI5SGazO\n71fpirtjXzscZFA8UCZzlhsmr9lhygz4pETX1xp0kbJ/uy5XlDUv/Jjk+1owqiZM\nrXEzm7uVoJSkQSh7m9Alt2U3CD3C5rgRxHZZTPzf51bfkCEhYGddXvclhtRKfAkr\njHbFBkJd7sLBJWzfZPdM8Co8FQKBgQDYwzmVI2jJTt6RYZwpQbbMZXAYOSgqj8R5\ns8aLSgVI+u8ThJUfzcqEY2LD4ka3vPuVmYXiw9NiZc6TnAS6BsWivsvziZKPRBx9\nAT8pEkh7ZL+YqaKmZyT9OgkqcL1cupu7SXOeTPdGja5w4Mecmzb6JaOJqTpm7TO3\nhAGmstjrtQKBgQCGd1o8i5cxu1VEUzYgo6VkcpkDxa3jHADE1E8yNyUArNMzriGb\nJuANcT1WPGPM3+Jt+6yMx/TpbzWOfJ6jHJfMG9bv+HobHvCQON7euWjZrEJCAtah\n0e1isu8QW31QyiYeX1MuJ4uwuCN03uSgVlDdaqVGUbBVZY857vPQZoDXYQKBgQDH\no8a9HUe9YO6MZ6I0PVnnFuYO6VWdHZyPmowabapAdR0MlOfjyt3i4MZuM1F+mIf+\nWM9+820VCz8fpGqWCvar1Z5yRxq86LZ0S1mosjYfr8LnEBXFvOnMcE9Qz1UYuqYD\n8LqT6b81M/id7ejqy+nuqgvdFge8FGu1cdczeTVgoQKBgQC5+Hl+AVVgx2HbBvdd\njg6lSNGmw4UG0DgQrUouYxxSIfVkG5pDzZcJmJyO8/9EF/gZU73dDytwPEJnmjWA\na6sb1k9CYFfUyuzVJDdz+0pkW8HFGwkVYE2/Im2BR0s4CZYzwGh6X0prqC3/SAMj\nQe1SQA2kTUBvYsfqZIlX145jrA==\n-----END PRIVATE KEY-----\n",
  "client_email": "fandy-559@bcacare-173316.iam.gserviceaccount.com",
  "client_id": "103836226024904147076",
  "auth_uri": "https://accounts.google.com/o/oauth2/auth",
  "token_uri": "https://accounts.google.com/o/oauth2/token",
  "auth_provider_x509_cert_url": "https://www.googleapis.com/oauth2/v1/certs",
  "client_x509_cert_url": "https://www.googleapis.com/robot/v1/metadata/x509/fandy-559%40bcacare-173316.iam.gserviceaccount.com"
}
